Workflow • kwb.endnote
…
names(multi_cols_list)
#> [1] "author"           "author_secondary" "author_tecondary"
#> [4] "urls_pdf"         "keywords"

hints_author_names <- tibble::tibble(author = unique(multi_cols_list$author$value)) %>%
  dplyr::mutate(hints = kwb.endnote::give_hints_author_names(.data$author)) %>% 
  dplyr::filter(stringr::str_detect(.data$hints, pattern = "^fix_")) %>% 
  dplyr::arrange(.data$author) 
#> Generate hints for 'Author Names' ... Replacing 31 values with fix_multiple_authors_per_line ... ok. 
#> Replacing 230 values with fix_firstname_lastname_with_lastname_semicolon_firstname ... ok. 
#> Replacing 27 values with fix_author_name_by_deleting_last_semicolon ... ok. 
#> ok.

hints_author_names 
#> # A tibble: 269 x 2
#>    author             hints                                                
#>    <chr>              <chr>                                                
#>  1 " Claire Pineau "  fix_firstname_lastname_with_lastname_semicolon_first…
#>  2 "A. Bonhomme "     fix_firstname_lastname_with_lastname_semicolon_first…
#>  3 A. Drews           fix_firstname_lastname_with_lastname_semicolon_first…
#>  4 A. Hein            fix_firstname_lastname_with_lastname_semicolon_first…
#>  5 A. Lesouëf         fix_firstname_lastname_with_lastname_semicolon_first…
#>  6 "A. Lesouëf "      fix_firstname_lastname_with_lastname_semicolon_first…
#>  7 A. Matzinger       fix_firstname_lastname_with_lastname_semicolon_first…
#>  8 A. Peter-Fröhlich  fix_firstname_lastname_with_lastname_semicolon_first…
#>  9 Adrien Moreau      fix_firstname_lastname_with_lastname_semicolon_first…
#> 10 Alexander Sperlich fix_firstname_lastname_with_lastname_semicolon_first…
#> # … with 259 more rows
…
